<?xml version="1.0" encoding="UTF-8"?>
<CustomTab xmlns="http://soap.sforce.com/2006/04/metadata">
    <description>Created by Lightning App Builder</description>
    <flexiPage>Friends_with_Boats</flexiPage>
    <label>Friends with Boats</label>
    <mobileReady>true</mobileReady>
    <motif>Custom90: Scales</motif>
</CustomTab>
